{
  "library": "spring-boot",
  "modelPackage": "chengdroid91.springcloudaws.swagger.role.dto",
  "apiPackage": "chengdroid91.springcloudaws.swagger.role.api",
  "interfaceOnly": true,
  "useBeanValidation": true,
  "typeMappings" : {
    "File" : "org.springframework.web.multipart.MultipartFile",
    "byte[]" : "org.springframework.web.servlet.mvc.method.annotation.StreamingResponseBody",
    "SuccessDto" : "chengdroid91.springcloudaws.swagger.dto.EmptyDto",
    "ErrorDto" : "chengdroid91.springcloudaws.swagger.dto.ExceptionDto"
  }
}